# Generated by Visualization Toolkit
v -0.002869696356356144 -0.011351823806762695 0.0074909706600010395
v -0.0016224568244069815 -0.014957359060645103 0.0071223885752260685
v -0.0034462041221559048 -0.012175331823527813 0.003549376968294382
v -0.0013259645784273744 -0.015305515378713608 0.0046482873149216175
v -0.0028858245350420475 -0.014366121031343937 -0.0017330697737634182
v -0.0013663546415045857 -0.017201270908117294 0.001847561914473772
v -0.0035801406484097242 -0.010172467678785324 -0.004107512068003416
v -0.004609313327819109 -0.008381849154829979 0.0019652829505503178
v -0.004065550398081541 -0.0075693014077842236 0.005120482761412859
v 0.000362250953912735 -0.012392292730510235 0.006773012224584818
v 0.00021191021369304508 -0.009801365435123444 0.006658755708485842
v -0.0016410179669037461 -0.007147188298404217 0.00516315596178174
v -0.0004926620167680085 -0.02143220789730549 0.00631328159943223
v 0.0002242344053229317 -0.019941426813602448 0.008673295378684998
v 0.0025703897699713707 -0.019282180815935135 0.009166285395622253
v -0.0008225170895457268 -0.01899402029812336 -0.0009692911989986897
v -0.002199558774009347 -0.01685718446969986 -0.003922902513295412
v 0.0012071275850757957 -0.02286449261009693 0.003063126001507044
v -0.0026167642790824175 -0.011910973116755486 -0.006478765048086643
v 0.00013013475108891726 -0.009475035592913628 -0.0028530950658023357
v -0.0011965717421844602 -0.007818177342414856 0.0015126983635127544
v 0.0032980027608573437 -0.012107431888580322 0.0038477410562336445
v 0.003734428668394685 -0.009612476453185081 0.0024709240533411503
v 0.0024539409205317497 -0.007109189871698618 0.0013852878473699093
v 0.004681898280978203 -0.019354550167918205 0.007321423385292292
v 0.0012532502878457308 -0.023708375170826912 0.010326126590371132
v 0.0017418299103155732 -0.02502032183110714 0.008608030155301094
v 0.0036369897425174713 -0.023201631382107735 0.01120828464627266
v 0.003571663051843643 -0.02723676897585392 0.005038910079747438
v 0.005636271089315414 -0.024290962144732475 0.010128466412425041
v 0.0015145415673032403 -0.015270140953361988 -0.003436144907027483
v 0.0022812297102063894 -0.01746806688606739 -0.0011447095312178135
v 0.003754278179258108 -0.02160361409187317 0.0033100717701017857
v 0.0010650255717337132 -0.012285520322620869 -0.006090652197599411
v 0.005495346616953611 -0.025845199823379517 0.0058582075871527195
v 0.0041510723531246185 -0.009391671046614647 -0.0029398207552731037
v 0.003904984099790454 -0.014169924892485142 0.0011361022479832172
v 0.003985976334661245 -0.011455876752734184 -0.00033784707193262875
v 0.005144245456904173 -0.020512206479907036 0.00521317170932889
v 0.006340318825095892 -0.02512827329337597 0.007895275950431824
v 0.004580147564411163 -0.02803240343928337 0.014292290434241295
v 0.002998921787366271 -0.02854168973863125 0.009184595197439194
v 0.006254449021071196 -0.02735920436680317 0.012782176956534386
v 0.005485936067998409 -0.030640099197626114 0.007898395881056786
v 0.007338411640375853 -0.03062424622476101 0.008640838786959648
v 0.007089073769748211 -0.02898113988339901 0.010229311883449554
v 0.005949477199465036 -0.030643051490187645 0.013828596100211143
v 0.0075151193886995316 -0.03108563832938671 0.012128429487347603
v 0.007535742130130529 -0.03297501057386398 0.011614765971899033
f 1 2 3
f 4 3 2
f 5 3 6
f 4 6 3
f 7 8 5
f 3 5 8
f 1 3 9
f 8 9 3
f 2 1 10
f 11 10 1
f 1 9 11
f 12 11 9
f 13 4 14
f 2 14 4
f 10 15 2
f 14 2 15
f 4 13 6
f 6 16 5
f 5 16 17
f 13 18 6
f 16 6 18
f 17 19 5
f 7 5 19
f 20 7 19
f 7 20 8
f 21 8 20
f 8 21 9
f 9 21 12
f 10 11 22
f 23 22 11
f 12 24 11
f 23 11 24
f 22 25 10
f 15 10 25
f 12 21 24
f 14 26 13
f 13 26 27
f 28 26 15
f 14 15 26
f 29 18 27
f 13 27 18
f 15 25 28
f 30 28 25
f 17 16 31
f 32 31 16
f 32 16 33
f 18 33 16
f 17 31 19
f 19 31 34
f 18 29 33
f 35 33 29
f 20 19 34
f 34 36 20
f 36 24 20
f 20 24 21
f 37 22 38
f 23 38 22
f 36 38 24
f 23 24 38
f 22 37 25
f 39 25 37
f 30 25 40
f 40 25 39
f 41 42 26
f 27 26 42
f 43 41 28
f 26 28 41
f 27 42 29
f 44 29 42
f 28 30 43
f 29 44 35
f 45 35 44
f 43 30 46
f 40 46 30
f 37 32 39
f 33 39 32
f 32 37 31
f 38 31 37
f 31 38 34
f 36 34 38
f 33 35 39
f 40 39 35
f 35 45 40
f 40 45 46
f 41 47 42
f 41 43 47
f 48 47 43
f 49 44 42
f 42 47 49
f 43 46 48
f 49 45 44
f 48 46 45
f 49 48 45
f 49 47 48
