# Generated by Visualization Toolkit
v -0.002205000026151538 -0.004038000013679266 -0.002225999953225255
v -0.004687000066041946 -0.003926999866962433 -0.0030129998922348022
v -0.0035880000796169043 -0.007447999902069569 -0.003111999947577715
v -0.0005169999785721302 -0.008840999566018581 -0.002962999977171421
v -0.0031109999399632215 -0.0005249999812804163 -0.002526999916881323
v -0.005282999947667122 0.0004299999854993075 -0.0026839999482035637
v 0.00025599999935366213 -0.0019020000472664833 -0.0034229999873787165
v 0.00032699998700991273 -0.00011100000119768083 -0.002942000050097704
v -0.00025400001322850585 0.0029869999270886183 -0.0021009999327361584
v -0.0046350001357495785 -0.0041160001419484615 0.0001340000017080456
v -0.0044109998270869255 -0.00902200024574995 -0.00014600000577047467
v -0.004892999771982431 -0.000750000006519258 0.0008880000095814466
v -0.002761000068858266 -0.010224999859929085 0.0004769999941345304
v 0.0016789999790489674 -0.009610000066459179 -0.0008759999764151871
v -0.004342999774962664 -0.00978699978441 0.0022950000129640102
v 0.0018159999744966626 -0.003046999918296933 -0.003567999927327037
v -0.0035910001024603844 0.004616999998688698 -0.00023400000645779073
v -0.007369999773800373 0.0047610001638531685 -0.002007999923080206
v 0.0030249999836087227 0.003659999929368496 -0.0011699999449774623
v -0.007439999841153622 0.003404000075533986 -0.0007259999983943999
v 0.00254400004632771 -0.0003169999981764704 -0.0025339999701827765
v -0.005561999976634979 -0.002601000014692545 0.0022589999716728926
v -0.00533400010317564 -0.004896000027656555 0.005049999803304672
v -0.0021470000501722097 -0.0042039998807013035 0.005698000080883503
v 0.006386999972164631 0.0030159999150782824 0.0062859999015927315
v 0.004910000134259462 -0.004854000173509121 -0.0017269999952986836
v 0.0033760000951588154 -0.004191999789327383 -0.003711000084877014
v 0.0003380000125616789 0.006947999820113182 0.0019440000178292394
v -0.007451999932527542 0.005249000154435635 0.004251000005751848
v 0.005950999911874533 0.0025679999962449074 -0.0006290000164881349
v -0.00762399984523654 0.0034890000242739916 0.0034910000395029783
v 0.005849000066518784 -0.002495999913662672 -0.0027280000504106283
v -0.005816999822854996 0.0008629999938420951 0.007083999924361706
v -0.003854000009596348 0.0016929999692365527 0.00877700001001358
vn 0.3206470012664795 0.1409749984741211 -0.9366490244865417
vn 0.6494669914245605 0.02961600013077259 -0.7598130106925964
vn 0.1992350071668625 -0.6419150233268738 -0.7404389977455139
vn 0.4416170120239258 -0.302947998046875 -0.844510018825531
vn 0.12882299721240997 0.36302998661994934 -0.9228289723396301
vn 0.38334599137306213 -0.09274999797344208 -0.918936014175415
vn 0.3090609908103943 0.09784500300884247 -0.9459959864616394
vn 0.3243739902973175 0.240897998213768 -0.9147400259971619
vn 0.18059200048446655 0.4253210127353668 -0.8868420124053955
vn 0.9825839996337891 -0.035197000950574875 -0.18245400488376617
vn 0.8879430294036865 -0.3859739899635315 -0.2501620054244995
vn 0.7901359796524048 -0.32963600754737854 -0.5167449712753296
vn -0.44212400913238525 -0.8725050091743469 0.20799200236797333
vn 0.04211900010704994 -0.9971680045127869 -0.06230499967932701
vn 0.45166099071502686 -0.867510974407196 0.20839299261569977
vn 0.22977299988269806 -0.19273899495601654 -0.9539690017700195
vn -0.03380899876356125 0.9669730067253113 0.25262799859046936
vn 0.5949689745903015 0.3754430115222931 -0.7106710076332092
vn -0.23942500352859497 0.9467300176620483 -0.2153570055961609
vn 0.8125450015068054 -0.37162500619888306 -0.4490729868412018
vn -0.18952800333499908 0.3051779866218567 -0.9332450032234192
vn 0.9536849856376648 -0.21680200099945068 -0.2085220068693161
vn 0.6197530031204224 -0.36874398589134216 0.6927729845046997
vn -0.30824100971221924 -0.4264490008354187 0.8503689765930176
vn -0.4015580117702484 -0.4009450078010559 0.8234040141105652
vn -0.25112101435661316 -0.8773099780082703 0.4089820086956024
vn -0.059186000376939774 -0.6193910241127014 -0.7828490138053894
vn -0.04194999858736992 0.7385609745979309 0.672881007194519
vn 0.5989710092544556 0.7209650278091431 0.3484880030155182
vn -0.5703020095825195 0.7814440131187439 -0.25318199396133423
vn 0.9776380062103271 -0.048622000962495804 0.20459799468517303
vn -0.7768300175666809 -0.462911993265152 -0.4269050061702728
vn 0.832023024559021 -0.12409000098705292 0.5406849980354309
vn 0.1612820029258728 0.14443500339984894 0.976282000541687
f 1//1 2//2 3//3 4//4
f 5//5 6//6 2//2 1//1
f 4//4 7//7 8//8 1//1
f 1//1 8//8 9//9 5//5
f 2//2 10//10 11//11 3//3
f 6//6 12//12 10//10 2//2
f 4//4 3//3 13//13 14//14
f 3//3 11//11 15//15 13//13
f 14//14 16//16 7//7 4//4
f 17//17 18//18 6//6 5//5
f 5//5 9//9 19//19 17//17
f 18//18 20//20 12//12 6//6
f 8//8 7//7 21//21
f 7//7 16//16 21//21
f 9//9 8//8 21//21
f 19//19 9//9 21//21
f 22//22 11//11 10//10
f 22//22 10//10 12//12
f 22//22 15//15 11//11
f 22//22 12//12 20//20
f 13//13 15//15 23//23 24//24
f 14//14 13//13 24//24 25//25
f 26//26 27//27 16//16 14//14
f 14//14 25//25 26//26
f 22//22 23//23 15//15
f 16//16 27//27 21//21
f 28//28 29//29 18//18 17//17
f 17//17 19//19 30//30 28//28
f 29//29 31//31 20//20 18//18
f 30//30 19//19 21//21
f 22//22 20//20 31//31
f 32//32 30//30 21//21
f 27//27 32//32 21//21
f 22//22 31//31 33//33
f 22//22 33//33 23//23
f 24//24 23//23 33//33 34//34
f 34//34 25//25 24//24
f 25//25 34//34 29//29 28//28
f 28//28 30//30 32//32 25//25
f 25//25 32//32 27//27 26//26
f 34//34 33//33 31//31 29//29
