# Generated by Visualization Toolkit
v -0.0040699997916817665 -0.00023999999393709004 -0.003914999775588512
v -0.0026100000832229853 0.000039999998989515007 -0.006635999772697687
v -0.003579000011086464 0.0027469999622553587 -0.007584000006318092
v -0.004523999989032745 0.000775999971665442 -0.004075999837368727
v -0.003622000105679035 -0.0018279999494552612 -0.0028589998837560415
v -0.0021329999435693026 -0.004827999975532293 -0.003341000061482191
v -0.004064999986439943 -0.0008539999835193157 -0.001892999978736043
v 0.011734999716281891 -0.005727999843657017 -0.0025309999473392963
v 0.00948300026357174 0.0007939999923110008 -0.00558000011369586
v 0.00406000018119812 0.004838999826461077 -0.006146000232547522
v -0.0048940000124275684 0.0028329999186098576 -0.004222999792546034
v -0.004550000187009573 0.0010470000561326742 -0.0028669999446719885
v 0.005439999978989363 0.006399999838322401 -0.0026110000908374786
v -0.0039889998733997345 -0.0023219999857246876 -0.001104000024497509
v -0.0028510000556707382 -0.004792999941855669 -0.00021699999342672527
v 0.012431000359356403 -0.00469799991697073 0.0028880001045763493
v -0.003780999919399619 -0.001914000022225082 -0.00021499999274965376
v -0.004236999899148941 -0.0006089999806135893 -0.0008270000107586384
v -0.0037479999009519815 -0.001740999985486269 0.0007190000033006072
v 0.01268799975514412 -0.0016870000399649143 0.002128999913111329
v 0.012140000239014626 -0.00145800004247576 -0.0004189999890513718
v 0.011307000182569027 0.0007660000119358301 -0.0014730000402778387
v 0.010545000433921814 0.0023189999628812075 -0.0019160000374540687
v 0.008763999678194523 0.004424999933689833 0.0004799999878741801
v -0.006093000061810017 0.003010000102221966 -0.00030399998649954796
v 0.006399999838322401 0.007488999981433153 0.0036959999706596136
v 0.008050000295042992 0.0052999998442828655 0.00229199999012053
v -0.0019920000340789557 -0.003969000186771154 0.002997000003233552
v 0.010848999954760075 -0.002177000045776367 0.006167000159621239
v 0.011214000172913074 0.00046300000394694507 0.003932000137865543
v -0.0008740000193938613 -0.001711999997496605 0.0050760000012815
v 0.01053099986165762 0.001538999960757792 0.0012329999590292573
v 0.0071470001712441444 0.003218000056222081 0.007170000113546848
v 0.009537000209093094 0.0021860001143068075 0.0048420000821352005
vn 0.8776379823684692 -0.39214301109313965 -0.2756359875202179
vn 0.4446829855442047 -0.36370399594306946 -0.8185210227966309
vn 0.6381649971008301 0.09792300313711166 -0.7636470198631287
vn 0.914933979511261 -0.32930201292037964 -0.23335899412631989
vn 0.9103890061378479 -0.33794599771499634 -0.23871299624443054
vn 0.5536630153656006 -0.7166190147399902 -0.42416301369667053
vn 0.9659960269927979 -0.25558900833129883 -0.03905399888753891
vn -0.6860479712486267 -0.5208669900894165 -0.507972002029419
vn -0.567359983921051 0.0026549999602138996 -0.8234660029411316
vn -0.40900900959968567 0.6430069804191589 -0.6474980115890503
vn 0.8075379729270935 0.45854800939559937 -0.37096598744392395
vn 0.9469959735870361 -0.27315598726272583 -0.16906699538230896
vn -0.1707639992237091 0.9527789950370789 -0.2511020004749298
vn 0.972324013710022 -0.23280900716781616 0.019626999273896217
vn 0.5621089935302734 -0.7784370183944702 0.2794089913368225
vn -0.6715670228004456 -0.6374319791793823 0.3777270019054413
vn 0.9486269950866699 -0.12553100287914276 0.2904280126094818
vn 0.9148129820823669 -0.4038569927215576 -0.004137999843806028
vn 0.9198740124702454 -0.3050349950790405 0.24654699862003326
vn -0.9471060037612915 0.3200950026512146 0.023010000586509705
vn -0.9545620083808899 0.2444240003824234 -0.17049400508403778
vn -0.9274140000343323 0.34475699067115784 -0.14507299661636353
vn -0.8188009858131409 0.5619720220565796 -0.11727499961853027
vn -0.7217559814453125 0.6891639828681946 -0.06420200318098068
vn 0.9283919930458069 0.24335399270057678 0.28083398938179016
vn -0.23896199464797974 0.9466599822044373 0.21617500483989716
vn -0.795490026473999 0.6031759977340698 0.05809599906206131
vn 0.5526390075683594 -0.4239329993724823 0.7175449728965759
vn -0.4919700026512146 -0.1354759931564331 0.8600069880485535
vn -0.8246570229530334 0.4900990128517151 0.28238898515701294
vn 0.633575975894928 -0.08262699842453003 0.7692559957504272
vn -0.8438609838485718 0.5316630005836487 0.07234100252389908
vn -0.356344997882843 0.4184440076351166 0.8354179859161377
vn -0.8035489916801453 0.544284999370575 0.2409610003232956
f 1//1 2//2 3//3 4//4
f 5//5 6//6 2//2 1//1
f 7//7 5//5 1//1
f 7//7 1//1 4//4
f 6//6 8//8 9//9 2//2
f 2//2 9//9 10//10 3//3
f 4//4 3//3 11//11 12//12
f 3//3 10//10 13//13 11//11
f 7//7 4//4 12//12
f 14//14 15//15 6//6 5//5
f 7//7 14//14 5//5
f 15//15 16//16 8//8 6//6
f 7//7 17//17 14//14
f 7//7 12//12 18//18
f 7//7 18//18 19//19
f 7//7 19//19 17//17
f 16//16 20//20 21//21 8//8
f 8//8 21//21 22//22 9//9
f 9//9 22//22 23//23 10//10
f 10//10 23//23 24//24 13//13
f 12//12 11//11 25//25 18//18
f 11//11 13//13 26//26 25//25
f 13//13 24//24 27//27 26//26
f 17//17 28//28 15//15 14//14
f 28//28 29//29 16//16 15//15
f 29//29 30//30 20//20 16//16
f 19//19 31//31 28//28 17//17
f 18//18 25//25 31//31 19//19
f 20//20 30//30 32//32
f 21//21 20//20 32//32
f 22//22 21//21 32//32
f 23//23 22//22 32//32
f 24//24 23//23 32//32
f 27//27 24//24 32//32
f 25//25 26//26 33//33 31//31
f 26//26 27//27 34//34 33//33
f 34//34 27//27 32//32
f 31//31 33//33 29//29 28//28
f 33//33 34//34 30//30 29//29
f 30//30 34//34 32//32
